Build Probabilistic Process Models Using MCMC • propro
…
In order to see what the different beta’s refer to, we can plot the underlying automaton

plot_automaton(propro)

We now have to specify the priors. Let’s start by automatically setting to complements of all splits which have two options.

propro %>%
    set_prior_complements(n = 2) %>%
    list_priors()
#> Joining, by = "choice_id"
#> # A tibble: 21 x 3
#>    prior    choice_id specification   
#>    <chr>        <int> <chr>           
#>  1 beta[1]          1 <NA>            
#>  2 beta[2]          1 <- 1 - (beta[1])
#>  3 beta[3]          2 <NA>            
#>  4 beta[4]          2 <- 1 - (beta[3])
#>  5 beta[5]          3 <NA>            
#>  6 beta[6]          3 <- 1 - (beta[5])
#>  7 beta[7]          4 <NA>            
#>  8 beta[8]          4 <NA>            
#>  9 beta[9]          4 <NA>            
#> 10 beta[10]         5 <NA>            
#> # ... with 11 more rows
…
beta 3 = beta 12 beta 5 = beta 10 = beta 14 = beta 19 beta 8 = beta 17 beta 7 = beta 16 beta 9 = beta 18

propro %>%
    set_prior_complements(n = 2) %>%
    set_prior("beta[12]", "<- beta[3]")%>%
    set_prior("beta[10]", "<- beta[5]")%>%
    set_prior("beta[14]", "<- beta[5]")%>%
    set_prior("beta[19]", "<- beta[5]")%>%
    set_prior("beta[17]", "<- beta[8]")%>%
    set_prior("beta[16]", "<- beta[7]")%>%
    set_prior("beta[18]", "<- beta[9]") %>%
    list_priors
#> Joining, by = "choice_id"
#> # A tibble: 21 x 3
#>    prior    choice_id specification   
#>    <chr>        <int> <chr>           
#>  1 beta[1]          1 <NA>            
#>  2 beta[2]          1 <- 1 - (beta[1])
#>  3 beta[3]          2 <NA>            
#>  4 beta[4]          2 <- 1 - (beta[3])
#>  5 beta[5]          3 <NA>            
#>  6 beta[6]          3 <- 1 - (beta[5])
#>  7 beta[7]          4 <NA>            
#>  8 beta[8]          4 <NA>            
#>  9 beta[9]          4 <NA>            
#> 10 beta[10]         5 <- beta[5]      
#> # ... with 11 more rows
…
